{
  "docs": [
    {
      "date_local": "2006-03-25T10:30:00+12:00",
      "details": "Engine failure at 33 seconds and loss of vehicle",
      "flight_number": 1,
      "id": "5eb87cd9ffd86e000604b32a",
      "links": { "presskit": null },
      "name": "FalconSat"
    },
    {
      "date_local": "2007-03-21T13:10:00+12:00",
      "details": "Successful first stage burn and transition to second stage, maximum altitude 289 km, Premature engine shutdown at T+7 min 30 s, Failed to reach orbit, Failed to recover first stage",
      "flight_number": 2,
      "id": "5eb87cdaffd86e000604b32b",
      "links": { "presskit": null },
      "name": "DemoSat"
    },
    {
      "date_local": "2008-08-03T15:34:00+12:00",
      "details": "Residual stage 1 thrust led to collision between stage 1 and stage 2",
      "flight_number": 3,
      "id": "5eb87cdbffd86e000604b32c",
      "links": { "presskit": null },
      "name": "Trailblazer"
    },
    {
      "date_local": "2008-09-28T11:15:00+12:00",
      "details": "Ratsat was carried to orbit on the first successful orbital launch of any privately funded and developed, liquid-propelled carrier rocket, the SpaceX Falcon 1",
      "flight_number": 4,
      "id": "5eb87cdbffd86e000604b32d",
      "links": { "presskit": null },
      "name": "RatSat"
    },
    {
      "date_local": "2009-07-13T15:35:00+12:00",
      "details": null,
      "flight_number": 5,
      "id": "5eb87cdcffd86e000604b32e",
      "links": {
        "presskit": "http://www.spacex.com/press/2012/12/19/spacexs-falcon-1-successfully-delivers-razaksat-satellite-orbit"
      },
      "name": "RazakSat"
    },
    {
      "date_local": "2010-06-04T14:45:00-04:00",
      "details": null,
      "flight_number": 6,
      "id": "5eb87cddffd86e000604b32f",
      "links": {
        "presskit": "http://forum.nasaspaceflight.com/index.php?action=dlattach;topic=21869.0;attach=230821"
      },
      "name": "Falcon 9 Test Flight"
    },
    {
      "date_local": "2010-12-08T11:43:00-04:00",
      "details": null,
      "flight_number": 7,
      "id": "5eb87cdeffd86e000604b330",
      "links": {
        "presskit": "http://www.spacex.com/files/downloads/cots1-20101206.pdf"
      },
      "name": "COTS 1"
    },
    {
      "date_local": "2012-05-22T03:44:00-04:00",
      "details": "Launch was scrubbed on first attempt, second launch attempt was successful",
      "flight_number": 8,
      "id": "5eb87cdfffd86e000604b331",
      "links": {
        "presskit": "https://www.nasa.gov/pdf/649910main_cots2_presskit_051412.pdf"
      },
      "name": "COTS 2"
    },
    {
      "date_local": "2012-10-08T20:35:00-04:00",
      "details": "CRS-1 successful, but the secondary payload was inserted into abnormally low orbit and lost due to Falcon 9 boost stage engine failure, ISS visiting vehicle safety rules, and the primary payload owner's contractual right to decline a second ignition of the second stage under some conditions.",
      "flight_number": 9,
      "id": "5eb87ce0ffd86e000604b332",
      "links": {
        "presskit": "https://www.nasa.gov/pdf/694166main_SpaceXCRS-1PressKit.pdf"
      },
      "name": "CRS-1"
    },
    {
      "date_local": "2013-03-01T15:10:00-04:00",
      "details": "Last launch of the original Falcon 9 v1.0 launch vehicle",
      "flight_number": 10,
      "id": "5eb87ce1ffd86e000604b333",
      "links": {
        "presskit": "https://www.nasa.gov/sites/default/files/files/Orb2_PRESS_KIT.pdf"
      },
      "name": "CRS-2"
    }
  ],
  "hasNextPage": true,
  "hasPrevPage": false,
  "limit": 10,
  "nextPage": 2,
  "page": 2,
  "pagingCounter": 1,
  "prevPage": null,
  "totalDocs": 148,
  "totalPages": 15
}
