{
  "docs": [
    {
      "date_local": "2022-02-28T16:00:00-08:00",
      "details": null,
      "flight_number": 157,
      "id": "607a35b55a906a44023e0864",
      "links": { "presskit": null },
      "name": "WorldView Legion 1-2"
    },
    {
      "date_local": "2022-02-01T16:00:00-08:00",
      "details": null,
      "flight_number": 154,
      "id": "607a34e35a906a44023e085e",
      "links": { "presskit": null },
      "name": "NROL-87"
    },
    {
      "date_local": "2021-12-31T16:00:00-08:00",
      "details": null,
      "flight_number": 157,
      "id": "608d3d23ffcee803616cbde2",
      "links": { "presskit": null },
      "name": "NROL-85"
    },
    {
      "date_local": "2021-12-31T16:00:00-08:00",
      "details": null,
      "flight_number": 152,
      "id": "5fe3af43b3467846b324215e",
      "links": { "presskit": null },
      "name": "SARah 1"
    },
    {
      "date_local": "2021-12-08T19:00:00-05:00",
      "details": null,
      "flight_number": 148,
      "id": "6161c88d6db1a92bfba85348",
      "links": { "presskit": null },
      "name": "IXPE"
    },
    {
      "date_local": "2021-11-23T22:20:00-08:00",
      "details": null,
      "flight_number": 146,
      "id": "5fe3b107b3467846b324216b",
      "links": { "presskit": null },
      "name": "DART"
    },
    {
      "date_local": "2021-11-18T18:11:00-05:00",
      "details": null,
      "flight_number": 145,
      "id": "6161d32d6db1a92bfba85359",
      "links": { "presskit": null },
      "name": "CSG-2"
    },
    {
      "date_local": "2021-10-31T20:00:00-04:00",
      "details": null,
      "flight_number": 147,
      "id": "6161c94c6db1a92bfba85349",
      "links": { "presskit": null },
      "name": "Starlink 3-1 (v1.0)"
    },
    {
      "date_local": "2021-10-30T02:43:00-04:00",
      "details": null,
      "flight_number": 143,
      "id": "5fe3b15eb3467846b324216d",
      "links": { "presskit": null },
      "name": "Crew-3"
    },
    {
      "date_local": "2021-09-30T20:00:00-04:00",
      "details": null,
      "flight_number": 150,
      "id": "5fe3afc1b3467846b3242164",
      "links": { "presskit": null },
      "name": "Türksat 5B"
    }
  ],
  "hasNextPage": true,
  "hasPrevPage": false,
  "limit": 10,
  "nextPage": 2,
  "page": 1,
  "pagingCounter": 1,
  "prevPage": null,
  "totalDocs": 148,
  "totalPages": 15
}
